{
  "images" : [
    {
      "idiom" : "universal",
      "scale" : "1x"
    },
    {
      "idiom" : "universal",
      "filename" : "C_Users_Admin_AppData_Local_Packages_Microsoft.SkypeApp_kzf8qxf38zg5c_LocalState_c1c1a9b9-a6f1-4788-8bc3-f132304274f6 (1).png",
      "scale" : "2x"
    },
    {
      "idiom" : "universal",
      "scale" : "3x"
    }
  ],
  "info" : {
    "version" : 1,
    "author" : "xcode"
  }
}